Lab4_jeanniecarreiro
…
view(report_09_13_2020)

03_13_2020 : 230 entries 09_13_2020 : 3954 entries

Additionally, the data from 03_13_2020 only includes the following characteristics: Province_State, Country_Region, Last Update, Confirmed, Deaths, Recovered, Latitude, Longitude. The data from 09_13_2020 has all of the previous data with the addition of the following characteristics: FIPS, Admin2, Active, Combined_Key, Incidence_Rate, and Case-Fatality_Ratio.

1.2. make a data frame with total counts for each country

report_03_13_2020 %>% 
  group_by(Country_Region) %>% 
  summarize(total_Confirmed = sum(Confirmed), total_Deaths = sum(Deaths), total_recovered = sum(Recovered))

## `summarise()` ungrouping output (override with `.groups` argument)

## # A tibble: 125 x 4
##    Country_Region      total_Confirmed total_Deaths total_recovered
##    <chr>                         <dbl>        <dbl>           <dbl>
##  1 Afghanistan                       7            0               0
##  2 Albania                          33            1               0
##  3 Algeria                          26            2               8
##  4 Andorra                           1            0               0
##  5 Antigua and Barbuda               1            0               0
##  6 Argentina                        31            2               0
##  7 Armenia                           8            0               0
##  8 Aruba                             2            0               0
##  9 Australia                       200            3              23
## 10 Austria                         504            1               6
## #  with 115 more rows

1.3. get counts for confirmed cases per U.S. state

report_03_13_2020 %>% 
  filter(Country_Region == "US") %>% 
  group_by(Province_State) %>% 
  summarize(total_Confirmed = sum(Confirmed)) %>% 
  arrange(desc(total_Confirmed))

## `summarise()` ungrouping output (override with `.groups` argument)

## # A tibble: 53 x 2
##    Province_State   total_Confirmed
##    <chr>                      <dbl>
##  1 Washington                   568
##  2 New York                     421
##  3 California                   282
##  4 Massachusetts                123
##  5 Florida                       50
##  6 Colorado                      49
##  7 Diamond Princess              46
##  8 Illinois                      46
##  9 Texas                         43
## 10 Georgia                       42
## #  with 43 more rows
…
